<?xml version="1.0" encoding="UTF-8" standalone="no"?>
<!-- Created with Inkscape (http://www.inkscape.org/) -->

<svg
   width="210mm"
   height="297mm"
   viewBox="0 0 210 297"
   version="1.1"
   id="svg5"
   xmlns:xlink="http://www.w3.org/1999/xlink"
   xmlns="http://www.w3.org/2000/svg"
   xmlns:svg="http://www.w3.org/2000/svg">
  <defs
     id="defs2">
    <linearGradient
       id="linearGradient8076">
      <stop
         style="stop-color:#002b47;stop-opacity:1;"
         offset="0"
         id="stop8072" />
      <stop
         style="stop-color:#002b47;stop-opacity:0;"
         offset="1"
         id="stop8074" />
    </linearGradient>
    <linearGradient
       id="linearGradient1202">
      <stop
         style="stop-color:#000000;stop-opacity:1;"
         offset="0"
         id="stop1198" />
      <stop
         style="stop-color:#000000;stop-opacity:0;"
         offset="1"
         id="stop1200" />
    </linearGradient>
    <linearGradient
       id="a"
       gradientUnits="userSpaceOnUse"
       x2="0"
       y2="24400"
       y1="26700"
       x1="0"
       spreadMethod="pad">
      <stop
         stop-color="#fff"
         offset="0"
         id="stop985" />
      <stop
         stop-color="#adf"
         offset="1"
         id="stop987" />
    </linearGradient>
    <linearGradient
       xlink:href="#linearGradient1202"
       id="linearGradient1204"
       x1="-5944.832"
       y1="12257.423"
       x2="27031.461"
       y2="12257.423"
       gradientUnits="userSpaceOnUse" />
    <linearGradient
       xlink:href="#linearGradient8076"
       id="linearGradient8078"
       x1="12400"
       y1="24833"
       x2="12400"
       y2="26202"
       gradientUnits="userSpaceOnUse" />
  </defs>
  <g
     id="layer1">
    <g
       id="g1131"
       transform="matrix(0.00528409,0,0,0.00528409,45.703135,54.617038)">
      <rect
         height="27940"
         width="34250"
         x="-6330"
         fill="#ffffff"
         id="rect992"
         y="0"
         style="opacity:1;fill:#656565;fill-opacity:0" />
      <g
         stroke="#000000"
         stroke-width="61"
         id="g1022">
        <g
           fill="#aaffcc"
           id="g1000"
           style="fill:#005020;fill-opacity:1">
          <path
             d="M 6370,8620 V 2190 h 12300 v 6430"
             id="path994"
             style="fill:#005020;fill-opacity:1" />
          <path
             d="M 6370,10400 V 8640 h 12300 v 1760"
             id="path996"
             style="fill:#005020;fill-opacity:1" />
          <path
             d="m 6370,14500 v -4090 h 12300 v 4090"
             id="path998"
             style="fill:#005020;fill-opacity:1" />
        </g>
        <path
           d="m 6370,26700 v -2340 h 12300 v 2340"
           fill="url(#a)"
           id="path1002"
           style="opacity:1;fill:url(#linearGradient8078);fill-opacity:1;fill-rule:nonzero;stroke-width:60.9376;stroke-miterlimit:4;stroke-dasharray:none" />
        <g
           fill="#aaddff"
           id="g1010"
           style="fill:#00385e;fill-opacity:1">
          <path
             d="m 6370,19700 v -1760 h 12300 v 1760"
             id="path1004"
             style="fill:#00385e;fill-opacity:1" />
          <path
             d="m 18670,19700 v 4720 H 6370 v -4720 z"
             id="path1006"
             style="fill:#00385e;fill-opacity:1" />
          <path
             d="m 6370,17900 v -3510 h 12300 v 3510"
             id="path1008"
             style="fill:#00385e;fill-opacity:1" />
        </g>
        <g
           fill="none"
           id="g1016"
           style="stroke:#ffffff;stroke-opacity:1">
          <path
             d="m 5780,24400 -120,-9.5 -111,-47 -98,-75.9 -85,-107 -73,-120 -50.6,-139 -37.9,-155 -12.6,-174 v -3310 l -9.5,-168 -34.8,-161 -53.7,-133 -66,-120 -88,-101 -95,-82 -111,-47 -123,-15.8 123,-9.5 111,-50.6 95,-69 89,-111 66,-123 53.7,-133 34.8,-158 9.5,-174 v -3300 l 12.6,-171 37.9,-161 50.6,-133 73,-120 85,-98 98,-85 111,-47 120,-12.6"
             id="path1012"
             style="stroke:#ffffff;stroke-opacity:1" />
          <path
             d="m 19200,2190 120,22 111,63 98,85 85,133 73,145 50.6,183 37.9,180 9.5,209 v 4090 l 9.5,205 41,196 47,171 75.9,145 82,133 95,85 111,60 126,25.3 -126,25.3 -111,60 -95,85 -82,133 -75.9,145 -47,180 -41,183 -9.5,209 v 4080 l -9.5,209 -37.9,196 -50.6,168 -73,149 -85,133 -98,85 -111,63 -120,22"
             id="path1014"
             style="stroke:#ffffff;stroke-opacity:1" />
        </g>
        <path
           d="M 1810,2190 H 5280"
           id="path1018"
           style="stroke:#ffffff;stroke-opacity:1" />
        <path
           d="M 1850,8640 H 5320"
           id="path1020"
           style="stroke:#ffffff;stroke-opacity:1" />
      </g>
      <path
         d="m 12400,26000 h 188 v 202 h -188 v -202 m 0,-582 h 188 v 202 h -188 v -202 m 0,-585 h 188 v 202 h -188 v -202"
         id="path1024"
         style="fill:#ffffff;fill-opacity:0.46769202" />
      <path
         d="m 5030,2570 752,-389 -752,-376 231,376 -231,389"
         id="path1026"
         style="fill:#ffffff;fill-opacity:1" />
      <path
         d="m 5070,9040 752,-389 -752,-376 231,376 -231,389"
         id="path1028"
         style="fill:#ffffff;fill-opacity:1;stroke:#ffffff;stroke-opacity:1" />
      <g
         style="font-size:1200px;font-family:Arial, sans-serif;text-align:center;text-anchor:middle;opacity:1;fill:#ffffff;fill-opacity:1;stroke-width:0.946237;stroke-miterlimit:4;stroke-dasharray:none"
         id="g1078">
        <g
           font-size="1380px"
           id="g1050"
           style="fill:#ffffff;fill-opacity:1;stroke-width:0.946237;stroke-miterlimit:4;stroke-dasharray:none">
          <text
             y="21607"
             x="12468"
             id="text1030"
             style="fill:#ffffff;fill-opacity:1;stroke-width:0.946237;stroke-miterlimit:4;stroke-dasharray:none">Parameters for</text>
          <text
             y="23238"
             x="12501"
             id="text1032"
             style="fill:#ffffff;fill-opacity:1;stroke-width:0.946237;stroke-miterlimit:4;stroke-dasharray:none">DrawSquare</text>
          <text
             y="15768"
             x="12455"
             id="text1034"
             style="fill:#ffffff;fill-opacity:1;stroke-width:0.946237;stroke-miterlimit:4;stroke-dasharray:none">Locals of</text>
          <text
             y="17399"
             x="12501"
             id="text1036"
             style="fill:#ffffff;fill-opacity:1;stroke-width:0.946237;stroke-miterlimit:4;stroke-dasharray:none">DrawSquare</text>
          <text
             y="19211"
             x="12498"
             id="text1038"
             style="fill:#ffffff;fill-opacity:1;stroke-width:0.946237;stroke-miterlimit:4;stroke-dasharray:none">Return Address</text>
          <text
             y="11972"
             x="12468"
             id="text1040"
             style="fill:#ffffff;fill-opacity:1;stroke-width:0.946237;stroke-miterlimit:4;stroke-dasharray:none">Parameters for</text>
          <text
             y="13606"
             x="12500"
             id="text1042"
             style="fill:#ffffff;fill-opacity:1;stroke-width:0.946237;stroke-miterlimit:4;stroke-dasharray:none">DrawLine</text>
          <text
             y="4974"
             x="12455"
             id="text1044"
             style="fill:#ffffff;fill-opacity:1;stroke-width:0.946237;stroke-miterlimit:4;stroke-dasharray:none">Locals of</text>
          <text
             y="6602"
             x="12500"
             id="text1046"
             style="fill:#ffffff;fill-opacity:1;stroke-width:0.946237;stroke-miterlimit:4;stroke-dasharray:none">DrawLine</text>
          <text
             y="9870"
             x="12498"
             id="text1048"
             style="fill:#ffffff;fill-opacity:1;stroke-width:0.946237;stroke-miterlimit:4;stroke-dasharray:none">Return Address</text>
        </g>
        <text
           y="6464"
           x="27050"
           id="text1060"
           style="fill:#ffffff;fill-opacity:1;stroke-width:0.946237;stroke-miterlimit:4;stroke-dasharray:none"><tspan
             y="6464"
             x="23984"
             id="tspan1052"
             style="fill:#ffffff;fill-opacity:1;stroke-width:0.946237;stroke-miterlimit:4;stroke-dasharray:none">stack frame</tspan><tspan
             y="7961"
             x="23984"
             id="tspan1054"
             style="fill:#ffffff;fill-opacity:1;stroke-width:0.946237;stroke-miterlimit:4;stroke-dasharray:none">for</tspan><tspan
             y="9458"
             x="23984"
             id="tspan1056"
             style="fill:#ffffff;fill-opacity:1;stroke-width:0.946237;stroke-miterlimit:4;stroke-dasharray:none">DrawLine</tspan><tspan
             y="10955"
             x="23984"
             id="tspan1058"
             style="fill:#ffffff;fill-opacity:1;stroke-width:0.946237;stroke-miterlimit:4;stroke-dasharray:none">subroutine</tspan></text>
        <text
           y="17447"
           x="3865"
           id="text1070"
           style="fill:#ffffff;fill-opacity:1;stroke-width:0.946237;stroke-miterlimit:4;stroke-dasharray:none"><tspan
             x="563"
             id="tspan1062"
             style="fill:#ffffff;fill-opacity:1;stroke-width:0.946237;stroke-miterlimit:4;stroke-dasharray:none">stack frame</tspan><tspan
             y="18944"
             x="563"
             id="tspan1064"
             style="fill:#ffffff;fill-opacity:1;stroke-width:0.946237;stroke-miterlimit:4;stroke-dasharray:none">for</tspan><tspan
             y="20440"
             x="563"
             id="tspan1066"
             style="fill:#ffffff;fill-opacity:1;stroke-width:0.946237;stroke-miterlimit:4;stroke-dasharray:none">DrawSquare</tspan><tspan
             y="21937"
             x="563"
             id="tspan1068"
             style="fill:#ffffff;fill-opacity:1;stroke-width:0.946237;stroke-miterlimit:4;stroke-dasharray:none">subroutine</tspan></text>
        <text
           y="8919"
           x="-2242"
           id="text1072"
           style="fill:#ffffff;fill-opacity:1;stroke-width:0.946237;stroke-miterlimit:4;stroke-dasharray:none">Frame Pointer</text>
        <text
           y="2468"
           x="-2081"
           id="text1074"
           style="fill:#ffffff;fill-opacity:1;stroke-width:0.946237;stroke-miterlimit:4;stroke-dasharray:none">Stack Pointer</text>
        <text
           y="1860"
           x="12453"
           id="text1076"
           style="fill:#ffffff;fill-opacity:1;stroke-width:0.946237;stroke-miterlimit:4;stroke-dasharray:none">top of stack</text>
      </g>
    </g>
  </g>
</svg>
